{
  "variants": {
    "charge=2": {
      "model": "futurepack:block/battery_box_gray_2",
      "x": 0,
      "y": 0
    },
    "charge=1": {
      "model": "futurepack:block/battery_box_gray_1",
      "x": 0,
      "y": 0
    },
    "charge=4": {
      "model": "futurepack:block/battery_box_gray_4",
      "x": 0,
      "y": 0
    },
    "charge=3": {
      "model": "futurepack:block/battery_box_gray_3",
      "x": 0,
      "y": 0
    },
    "charge=0": {
      "model": "futurepack:block/battery_box_gray_0",
      "x": 0,
      "y": 0
    }
  }
}