{
    "variants":
    {
	    "facing=down,rot=0": {
	      "model": "futurepack:block/dungeon_spawner_ceiling",
	      "y": 270,
	      "x": 180
	    },
	    "facing=down,rot=1": {
	      "model": "futurepack:block/dungeon_spawner_ceiling",
	      "y": 0,
	      "x": 180
	    },
	    "facing=down,rot=2": {
	      "model": "futurepack:block/dungeon_spawner_ceiling",
	      "y": 90,
	      "x": 180
	    },
	    "facing=down,rot=3": {
	      "model": "futurepack:block/dungeon_spawner_ceiling",
	      "y": 180,
	      "x": 180
	    },
	    "facing=up,rot=0": {
	      "model": "futurepack:block/dungeon_spawner_ground",
	      "y": 90
	    },
	    "facing=up,rot=1": {
	      "model": "futurepack:block/dungeon_spawner_ground",
	      "y": 180
	    },
	    "facing=up,rot=2": {
	      "model": "futurepack:block/dungeon_spawner_ground",
	      "y": 270
	    },
	    "facing=up,rot=3": {
	      "model": "futurepack:block/dungeon_spawner_ground",
	      "y": 0
	    },
	    "facing=north,rot=0": {
	      "model": "futurepack:block/dungeon_spawner_wall",
	      "y": 0,
	      "x": 90
	    },
	    "facing=north,rot=1": {
	      "model": "futurepack:block/dungeon_spawner_wall",
	      "y": 0,
	      "x": 90
	    },
	    "facing=north,rot=2": {
	      "model": "futurepack:block/dungeon_spawner_wall",
	      "y": 0,
	      "x": 90
	    },
	    "facing=north,rot=3": {
	      "model": "futurepack:block/dungeon_spawner_wall",
	      "y": 0,
	      "x": 90
	    },
	    "facing=east,rot=0": {
	      "model": "futurepack:block/dungeon_spawner_wall",
	      "y": 90,
	      "x": 90
	    },
	    "facing=east,rot=1": {
	      "model": "futurepack:block/dungeon_spawner_wall",
	      "y": 90,
	      "x": 90
	    },
	    "facing=east,rot=2": {
	      "model": "futurepack:block/dungeon_spawner_wall",
	      "y": 90,
	      "x": 90
	    },
	    "facing=east,rot=3": {
	      "model": "futurepack:block/dungeon_spawner_wall",
	      "y": 90,
	      "x": 90
	    },
	    "facing=south,rot=0": {
	      "model": "futurepack:block/dungeon_spawner_wall",
	      "y": 180,
	      "x": 90
	    },
	    "facing=south,rot=1": {
	      "model": "futurepack:block/dungeon_spawner_wall",
	      "y": 180,
	      "x": 90
	    },
	    "facing=south,rot=2": {
	      "model": "futurepack:block/dungeon_spawner_wall",
	      "y": 180,
	      "x": 90
	    },
	    "facing=south,rot=3": {
	      "model": "futurepack:block/dungeon_spawner_wall",
	      "y": 180,
	      "x": 90
	    },
	    "facing=west,rot=0": {
	      "model": "futurepack:block/dungeon_spawner_wall",
	      "y": 270,
	      "x": 90
	    },
	    "facing=west,rot=1": {
	      "model": "futurepack:block/dungeon_spawner_wall",
	      "y": 270,
	      "x": 90
	    },
	    "facing=west,rot=2": {
	      "model": "futurepack:block/dungeon_spawner_wall",
	      "y": 270,
	      "x": 90
	    },
	    "facing=west,rot=3": {
	      "model": "futurepack:block/dungeon_spawner_wall",
	      "y": 270,
	      "x": 90
	    }
    }
}
