{
  "variants": {
    "facing=east,fill=6": {
      "model": "futurepack:block/fermentation_barrel_6",
      "x": 0,
      "y": 270
    },
    "facing=east,fill=7": {
      "model": "futurepack:block/fermentation_barrel_7",
      "x": 0,
      "y": 270
    },
    "facing=east,fill=2": {
      "model": "futurepack:block/fermentation_barrel_2",
      "x": 0,
      "y": 270
    },
    "facing=east,fill=3": {
      "model": "futurepack:block/fermentation_barrel_3",
      "x": 0,
      "y": 270
    },
    "facing=east,fill=4": {
      "model": "futurepack:block/fermentation_barrel_4",
      "x": 0,
      "y": 270
    },
    "facing=east,fill=5": {
      "model": "futurepack:block/fermentation_barrel_5",
      "x": 0,
      "y": 270
    },
    "facing=east,fill=0": {
      "model": "futurepack:block/fermentation_barrel_0",
      "x": 0,
      "y": 270
    },
    "facing=east,fill=1": {
      "model": "futurepack:block/fermentation_barrel_1",
      "x": 0,
      "y": 270
    },
    "facing=west,fill=7": {
      "model": "futurepack:block/fermentation_barrel_7",
      "x": 0,
      "y": 90
    },
    "facing=west,fill=6": {
      "model": "futurepack:block/fermentation_barrel_6",
      "x": 0,
      "y": 90
    },
    "facing=west,fill=5": {
      "model": "futurepack:block/fermentation_barrel_5",
      "x": 0,
      "y": 90
    },
    "facing=west,fill=4": {
      "model": "futurepack:block/fermentation_barrel_4",
      "x": 0,
      "y": 90
    },
    "facing=west,fill=3": {
      "model": "futurepack:block/fermentation_barrel_3",
      "x": 0,
      "y": 90
    },
    "facing=west,fill=2": {
      "model": "futurepack:block/fermentation_barrel_2",
      "x": 0,
      "y": 90
    },
    "facing=west,fill=1": {
      "model": "futurepack:block/fermentation_barrel_1",
      "x": 0,
      "y": 90
    },
    "facing=west,fill=0": {
      "model": "futurepack:block/fermentation_barrel_0",
      "x": 0,
      "y": 90
    },
    "facing=south,fill=1": {
      "model": "futurepack:block/fermentation_barrel_1",
      "x": 0,
      "y": 0
    },
    "facing=north,fill=5": {
      "model": "futurepack:block/fermentation_barrel_5",
      "x": 0,
      "y": 180
    },
    "facing=south,fill=0": {
      "model": "futurepack:block/fermentation_barrel_0",
      "x": 0,
      "y": 0
    },
    "facing=north,fill=4": {
      "model": "futurepack:block/fermentation_barrel_4",
      "x": 0,
      "y": 180
    },
    "facing=south,fill=3": {
      "model": "futurepack:block/fermentation_barrel_3",
      "x": 0,
      "y": 0
    },
    "facing=north,fill=7": {
      "model": "futurepack:block/fermentation_barrel_7",
      "x": 0,
      "y": 180
    },
    "facing=south,fill=2": {
      "model": "futurepack:block/fermentation_barrel_2",
      "x": 0,
      "y": 0
    },
    "facing=north,fill=6": {
      "model": "futurepack:block/fermentation_barrel_6",
      "x": 0,
      "y": 180
    },
    "facing=north,fill=1": {
      "model": "futurepack:block/fermentation_barrel_1",
      "x": 0,
      "y": 180
    },
    "facing=south,fill=5": {
      "model": "futurepack:block/fermentation_barrel_5",
      "x": 0,
      "y": 0
    },
    "facing=north,fill=0": {
      "model": "futurepack:block/fermentation_barrel_0",
      "x": 0,
      "y": 180
    },
    "facing=south,fill=4": {
      "model": "futurepack:block/fermentation_barrel_4",
      "x": 0,
      "y": 0
    },
    "facing=north,fill=3": {
      "model": "futurepack:block/fermentation_barrel_3",
      "x": 0,
      "y": 180
    },
    "facing=south,fill=7": {
      "model": "futurepack:block/fermentation_barrel_7",
      "x": 0,
      "y": 0
    },
    "facing=north,fill=2": {
      "model": "futurepack:block/fermentation_barrel_2",
      "x": 0,
      "y": 180
    },
    "facing=south,fill=6": {
      "model": "futurepack:block/fermentation_barrel_6",
      "x": 0,
      "y": 0
    }
  }
}