{
    "multipart": [
        {   
        	"apply": { "model": "futurepack:block/pipe_main_neon" }
        },
        {
        	"when":  { "north": "on" },
            "apply": { "model": "futurepack:block/pipe_side_neon", "uvlock": false }
        },
        {   "when": { "east": "on" },
            "apply": { "model": "futurepack:block/pipe_side_neon", "y": 90, "uvlock": false }
        },
        {   "when": { "south": "on" },
            "apply": { "model": "futurepack:block/pipe_side_neon", "y": 180, "uvlock": false }
        },
        {   "when": { "west": "on" },
            "apply": { "model": "futurepack:block/pipe_side_neon", "y": 270, "uvlock": false }
        },
        {	"when": { "up": "on"},
        	"apply": { "model": "futurepack:block/pipe_side_neon", "x": 270 , "uvlock": false}
        },
        {	"when": { "down": "on"},
        	"apply": { "model": "futurepack:block/pipe_side_neon", "x": 90, "uvlock": false}
        },
        {
        	"when":  { "north": "cable" },
            "apply": { "model": "futurepack:block/pipe_cable_neon", "uvlock": false }
        },
        {   "when": { "east": "cable" },
            "apply": { "model": "futurepack:block/pipe_cable_neon", "y": 90, "uvlock": false }
        },
        {   "when": { "south": "cable" },
            "apply": { "model": "futurepack:block/pipe_cable_neon", "y": 180, "uvlock": false }
        },
        {   "when": { "west": "cable" },
            "apply": { "model": "futurepack:block/pipe_cable_neon", "y": 270, "uvlock": false }
        },
        {	"when": { "up": "cable"},
        	"apply": { "model": "futurepack:block/pipe_cable_neon", "x": 270 , "uvlock": false}
        },
        {	"when": { "down": "cable"},
        	"apply": { "model": "futurepack:block/pipe_cable_neon", "x": 90, "uvlock": false}
        }
    ]
}
