{
  "variants": {
    "type=bottom": {
      "model": "futurepack:block/planks_palirie_slab_slab"
    },
    "type=top": {
      "model": "futurepack:block/planks_palirie_slab_slab_top"
    },
    "type=double": {
      "model": "futurepack:block/planks_palirie_slab"
    }
  }
}