{
    "parent": "block/outer_stairs",
    "textures": {
        "bottom": "futurepack:blocks/color_iron_12",
        "top": "futurepack:blocks/color_iron_12",
        "side": "futurepack:blocks/color_iron_12"
    }
}
