{
    "parent": "block/outer_stairs",
    "textures": {
        "bottom": "futurepack:blocks/gitter_2",
        "top": "futurepack:blocks/gitter_2",
        "side": "futurepack:blocks/gitter_2"
    }
}
