{
    "parent": "block/upper_slab",
    "textures": {
        "bottom": "futurepack:blocks/luftung_3",
        "top": "futurepack:blocks/luftung_3",
        "side": "futurepack:blocks/color_iron_3"
    }
}
