{
    "parent": "block/outer_stairs",
    "textures": {
        "bottom": "futurepack:blocks/gitter_7",
        "top": "futurepack:blocks/gitter_7",
        "side": "futurepack:blocks/gitter_7"
    }
}
