{
    "parent": "block/half_slab",
    "textures": {
        "bottom": "futurepack:blocks/color_iron_8",
        "top": "futurepack:blocks/color_iron_8",
        "side": "futurepack:blocks/color_iron_8"
    }
}
