{
    "parent": "block/half_slab",
    "textures": {
        "bottom": "futurepack:blocks/metal_block_luftschacht",
        "top": "futurepack:blocks/metal_block_luftschacht",
        "side": "futurepack:blocks/metal_block"
    }
}
