{
	"textures": {
		"texture0": "futurepack:blocks/neonengine0",
		"texture1": "futurepack:blocks/neonengine1",
		"texture2": "futurepack:blocks/neonengine2",
		"texture3": "futurepack:blocks/neonengine3",
		"texture4": "futurepack:blocks/neonengine4",
		"texture5": "futurepack:blocks/neonengine5",
		"texture6": "futurepack:blocks/neonengine6",
		"particle": "futurepack:blocks/neonengine0"
	},
	"elements": [
		{
			"from": [ 0.0, 7.0, 7.0 ],
			"to": [ 16.0, 9.0, 9.0 ],
			"faces": {
				"down":	{ "uv": [ 0, 4, 16, 6  ], "texture": "#texture0"},
				"up":	{ "uv": [ 0, 4, 16, 6  ], "texture": "#texture0"},
				"north":{ "uv": [ 0, 0, 16, 2  ], "texture": "#texture0"},
				"south":{ "uv": [ 0, 0, 16, 2  ], "texture": "#texture0"},
				"west":	{ "uv": [ 0, 2, 2, 4  ], "texture": "#texture0"},
				"east":	{ "uv": [ 0, 2, 2, 4  ], "texture": "#texture0"}
			}
		},
		{
			"from": [ 4.0, 1.0, 1.0 ],
			"to": [ 14.0, 15.0, 15.0 ],
			"faces": {
				"down":	{ "uv": [ 0, 0, 10, 14  ], "texture": "#texture4"},
				"up":	{ "uv": [ 0, 0, 10, 14  ], "texture": "#texture4"},
				"north":{ "uv": [ 0, 0, 10, 14  ], "texture": "#texture1"},
				"south":{ "uv": [ 0, 0, 10, 14  ], "texture": "#texture2"},
				"west":	{ "uv": [ 0, 0, 14, 14  ], "texture": "#texture3"},
				"east":	{ "uv": [ 0, 0, 14, 14  ], "texture": "#texture3"}
			}
		},
		{
			"from": [ 14.0, 0.0, 0.0 ],
			"to": [ 15.0, 16.0, 16.0 ],
			"faces": {
				"down":	{ "uv": [ 12, 0, 13, 16  ], "texture": "#texture1"},
				"up":	{ "uv": [ 11, 0, 12, 16  ], "texture": "#texture1"},
				"north":{ "uv": [ 10, 0, 11, 16  ], "texture": "#texture1"},
				"south":{ "uv": [ 10, 0, 11, 16  ], "texture": "#texture1"},
				"west":	{ "uv": [ 0, 0, 16, 16  ], "texture": "#texture5"},
				"east":	{ "uv": [ 0, 0, 16, 16  ], "texture": "#texture5"}
			}
		},
		{
			"from": [ 3.0, 0.0, 0.0 ],
			"to": [ 4.0, 16.0, 16.0 ],
			"faces": {
				"down":	{ "uv": [ 12, 0, 13, 16  ], "texture": "#texture1"},
				"up":	{ "uv": [ 11, 0, 12, 16  ], "texture": "#texture1"},
				"north":{ "uv": [ 10, 0, 11, 16  ], "texture": "#texture1"},
				"south":{ "uv": [ 10, 0, 11, 16  ], "texture": "#texture1"},
				"west":	{ "uv": [ 0, 0, 16, 16  ], "texture": "#texture5"},
				"east":	{ "uv": [ 0, 0, 16, 16  ], "texture": "#texture5"}
			}
		},
		{
			"from": [ 4.0, 5.0, 0.0 ],
			"to": [ 14.0, 11.0, 1.0 ],
			"faces": {
				"down":	{ "uv": [ 0, 6, 10, 7  ], "texture": "#texture0", "rotation": 180},
				"up":	{ "uv": [ 0, 6, 10, 7  ], "texture": "#texture0"},
				"north":{ "uv": [ 0, 8, 10, 14  ], "texture": "#texture0", "rotation": 180},
				"south":{ "uv": [ 0, 0, 10, 6  ], "texture": "#texture6"},
				"west":	{ "uv": [ 0, 7, 6, 8  ], "texture": "#texture0", "rotation": 270},
				"east":	{ "uv": [ 0, 7, 6, 8  ], "texture": "#texture0", "rotation": 90}
			}
		},
		{
			"from": [ 4.0, 7.0, 15.0 ],
			"to": [ 14.0, 8.0, 16.0 ],
			"faces": {
				"down":	{ "uv": [ 0, 14, 10, 15  ], "texture": "#texture0"},
				"up":	{ "uv": [ 0, 14, 10, 15  ], "texture": "#texture0"},
				"north":{ "uv": [ 0, 14, 10, 15  ], "texture": "#texture0"},
				"south":{ "uv": [ 0, 14, 10, 15  ], "texture": "#texture0"},
				"west":	{ "uv": [ 0, 15, 1, 16  ], "texture": "#texture0"},
				"east":	{ "uv": [ 0, 15, 1, 16  ], "texture": "#texture0"}
			}
		},
		{
			"from": [ 5.0, 8.0, 15.0 ],
			"to": [ 13.0, 14.0, 16.0 ],
			"faces": {
				"down":	{ "uv": [ 2, 2, 10, 3  ], "texture": "#texture0"},
				"up":	{ "uv": [ 1, 15, 9, 16  ], "texture": "#texture0"},
				"north":{ "uv": [ 0, 6, 8, 12  ], "texture": "#texture6"},
				"south":{ "uv": [ 8, 6, 16, 12  ], "texture": "#texture6"},
				"west":	{ "uv": [ 11, 6, 12, 12  ], "texture": "#texture0"},
				"east":	{ "uv": [ 10, 6, 11, 12  ], "texture": "#texture0"}
			}
		},
		{
			"from": [ 4.0, 15.0, 5.0 ],
			"to": [ 14.0, 16.0, 11.0 ],
			"faces": {
				"down":	{ "uv": [ 0, 0, 10, 6  ], "texture": "#texture6"},
				"up":	{ "uv": [ 0, 8, 10, 14  ], "texture": "#texture0"},
				"north":{ "uv": [ 0, 6, 10, 7  ], "texture": "#texture0"},
				"south":{ "uv": [ 0, 6, 10, 7  ], "texture": "#texture0"},
				"west":	{ "uv": [ 0, 7, 6, 8  ], "texture": "#texture0"},
				"east":	{ "uv": [ 0, 7, 6, 8  ], "texture": "#texture0"}
			}
		}
	]
}