{
    "parent": "block/cube",
    "textures": {
       "particle": "#all",
        "down": "#side",
        "up": "#all",
        "north": "#side",
        "east": "#side",
        "south": "#side",
        "west": "#side"
    }
}
