{
  "display": {
    "icon": {
      "item": "futurepack:tectern"
    },
    "title": {
      "translate": "advancements.futurepack.brain_touch.title"
    },
    "description": {
      "translate": "advancements.futurepack.brain_touch.description"
    }
  },
  "parent": "futurepack:the_impalpable",
  "criteria": {
    "use_tectern": {
      "trigger": "minecraft:impossible",
      "conditions": {
      },
      "_comment": "This is hardcoded in the tectern"
    }
  },
  "requirements": [
  	["use_tectern"]
  ]
}