{
  "display": {
    "icon": {
      "item": "futurepack:crystal_glowtite"
    },
    "title": {
      "translate": "advancements.futurepack.crys_glowtite.title"
    },
    "description": {
      "translate": "advancements.futurepack.crys_glowtite.description"
    }
  },
  "parent": "futurepack:menelaus",
  "criteria": {
    "glowtite": {
      "trigger": "minecraft:inventory_changed",
      "conditions": {
        "items": [
          {
            "items": [ "futurepack:crystal_glowtite" ]
          }
        ]
      }
    }
  },
  "requirements": [
  	["glowtite"]
  ]
}