{
  "display": {
    "icon": {
      "item": "futurepack:scanner_block_white"
    },
    "title": {
      "translate": "advancements.futurepack.labor.title"
    },
    "description": {
      "translate": "advancements.futurepack.labor.description"
    }
  },
  "parent": "futurepack:the_impalpable",
  "criteria": {
    "scanner": {
      "trigger": "minecraft:inventory_changed",
      "conditions": {
        "items": [
          {
            "tag": "futurepack:scanner"
          }
        ]
      }
    },
    "forscher": {
      "trigger": "minecraft:inventory_changed",
      "conditions": {
        "items": [
          {
            "tag": "futurepack:researcher"
          }
        ]
      }
    }
  },
  "requirements": [
  	["forscher"], ["scanner"]
  ]
}