{
  "display": {
    "icon": {
      "item": "futurepack:ore_zinc"
    },
    "title": {
      "translate": "advancements.futurepack.not_diamond.title"
    },
    "description": {
      "translate": "advancements.futurepack.not_diamond.description"
    }
  },
  "parent": "futurepack:root",
  "criteria": {
    "tin_ore": {
      "trigger": "minecraft:inventory_changed",
      "conditions": {
        "items": [
          {
            "items": [ "futurepack:ore_zinc" ]
          }
        ]
      }
    }
  },
  "requirements": [
  	["tin_ore"]
  ]
}