{
    "pools": 
    [
        {
            "name":"common_scrab",
            "rolls": 1,
            "entries": 
            [
                {
                    "type": "loot_table",
                    "name": "futurepack:chests/loots/commen_electronic_scrab_0",
                    "weight": 100
                }        
            ]
        },
		{
            "name":"fragments",
            "rolls": 1,
            "entries": 
            [
                {
                    "type": "loot_table",
                    "name": "futurepack:chests/loots/electronic_fragments",
                    "weight": 100
                }        
            ]
        },
		{
            "name":"common_ingots",
            "rolls": 2,
            "entries": 
            [
                {
                    "type": "loot_table",
                    "name": "futurepack:chests/loots/common_ingots",
                    "weight": 100
                }        
            ]
        },
		{
            "name":"common_things",
            "rolls": 1,
            "entries": 
            [
                {
                    "type": "loot_table",
                    "name": "futurepack:chests/loots/common_things_0",
                    "weight": 100
                }        
            ]
        }
    ]
}