{
    "pools": 
    [
        {
            "name":"bats",
            "rolls": 
            {
                "min": 0,
                "max": 2
            },
            "entries": 
            [
                {
                    "type": "minecraft:item",
                    "name": "futurepack:aiflash1",
                    "weight": 100
                }        
            ]
        }
    ]
}