{
	"_version": 1.13,
    "pools": 
    [
        {
            "name":"red_lenses",
            "rolls": 7,
            "entries": 
            [
                 {
                    "type": "item",
                    "name": "futurepack:lense_red",
                    "weight": 100
                }    
            ]
        }
    ]
}