{
  "type": "futurepack:research_shaped",
  "group": "futurepack",
  "pattern": [
    "SCS",
    "OFO",
    "ONO"
  ],
  "key": {
    "S": {
      "tag": "minecraft:stone_slabs"
    },
    "C": {
      "tag": "forge:workbenchs"
    },
    "O": {
      "item": "futurepack:composite_metal"
    },
    "F": {
      "item": "futurepack:color_iron_black"
    },
    "N": {
      "tag": "forge:ingots/neon"
    }
  },
  "result": {
    "item": "futurepack:assembly_table_black"
  }
}