{
  "type": "futurepack:research_shaped",
  "group": "futurepack",
  "pattern": [
    "R",
    "L",
    "I"
  ],
  "key": {
    "R": {
      "tag": "forge:dusts/redstone"
    },
    "L": {
      "item": "futurepack:chip_logic"
    },
    "I": {
      "tag": "forge:rods/iron"
    }
  },
  "result": {
    "item": "futurepack:claime"
  }
}