{
  "type": "futurepack:research_shaped",
  "group": "futurepack",
  "pattern": [
    "MGM",
    "GGG",
    "MGM"
  ],
  "key": {
    "M": {
      "item": "futurepack:color_iron_red"
    },
    "G": {
      "tag": "forge:glass/colorless"
    }
  },
  "result": {
    "item": "futurepack:color_glass_red",
    "count": 8
  }
}