{
  "type": "futurepack:research_shaped",
  "group": "futurepack",
  "pattern": [
    "MMM",
    "MMM"
  ],
  "key": {
    "M": {
      "item": "futurepack:composite_metal"
    }
  },
  "result": {
    "item": "futurepack:composite_trapdoor",
    "count": 2
  }
}