{
  "type": "futurepack:maschin_shaped",
  "group": "futurepack",
  "pattern": [
    "DPD",
    "NFN",
    "CMC"
  ],
  "key": {
    "D": {
      "tag": "forge:gems/diamond"
    },
    "P": {
      "item": "futurepack:parts_diamond"
    },
    "N": {
      "tag": "forge:ingots/neon"
    },
    "F": {
      "item": "futurepack:color_iron_black"
    },
    "C": {
      "item": "futurepack:composite_metal"
    },
    "M": {
      "item": "futurepack:maschineboard"
    }
  },
  "result": {
    "item": "futurepack:crusher_black"
  }
}