{
  "type": "futurepack:research_shaped",
  "group": "futurepack",
  "pattern": [
    "CKC",
    "AWA",
    "ABA"
  ],
  "key": {
    "A": {
      "tag": "forge:ingots/aluminum"
    },
    "C": {
      "item": "futurepack:coil_neon"
    },
    "B": [
      {
        "item": "futurepack:battery_box_white"
      },
      {
        "item": "futurepack:battery_box_gray"
      },
      {
        "item": "futurepack:battery_box_black"
      }
    ],
    "K": {
      "item": "futurepack:wire_normal"
    },
    "W": [
      {
        "item": "futurepack:wardrobe_white_normal_1"
      },
      {
        "item": "futurepack:wardrobe_white_normal_2"
      },
      {
        "item": "futurepack:wardrobe_white_large_1"
      },
      {
        "item": "futurepack:wardrobe_white_large_2"
      },
      {
        "item": "futurepack:wardrobe_light_gray_normal_1"
      },
      {
        "item": "futurepack:wardrobe_light_gray_normal_2"
      },
      {
        "item": "futurepack:wardrobe_light_gray_large_1"
      },
      {
        "item": "futurepack:wardrobe_light_gray_large_2"
      },
      {
        "item": "futurepack:wardrobe_black_normal_1"
      },
      {
        "item": "futurepack:wardrobe_black_normal_2"
      },
      {
        "item": "futurepack:wardrobe_black_large_1"
      },
      {
        "item": "futurepack:wardrobe_black_large_2"
      }
    ]
  },
  "result": {
    "item": "futurepack:drone_station"
  }
}