{
  "type": "futurepack:research_shaped",
  "group": "futurepack",
  "pattern": [
    "EE",
    "EE"
  ],
  "key": {
    "E": {
      "item": "futurepack:composite_metal"
    }
  },
  "result": {
    "item": "futurepack:metal_block",
    "count": 4
  }
}