{
  "type": "futurepack:research_shaped",
  "group": "futurepack",
  "pattern": [
    "CIC",
    "I I",
    "CIC"
  ],
  "key": {
    "C": {
      "item": "futurepack:composite_metal"
    },
    "I": {
      "item": "minecraft:iron_bars"
    }
  },
  "result": {
    "item": "futurepack:metal_block_ventilation",
    "count": 6
  }
}