{
  "type": "futurepack:research_shaped",
  "group": "futurepack",
  "pattern": [
    "TTT",
    "S S",
    "LCL"
  ],
  "key": {
    "T": {
      "item": "minecraft:white_carpet"
    },
    "S": {
      "tag": "forge:string"
    },
    "L": {
      "tag": "forge:leather"
    },
    "C": {
      "item": "minecraft:leather_chestplate"
    }
  },
  "result": {
    "item": "futurepack:gleiter"
  }
}