{
  "type": "futurepack:research_shapeless",
  "group": "futurepack",
  "ingredients": [
    {
      "item": "futurepack:grenade_empty"
    },
    {
      "tag": "forge:crops/potato"
    },
    {
      "tag": "forge:crops/potato"
    },
    {
      "tag": "forge:crops/carrot"
    }
  ],
  "result": {
    "item": "futurepack:grenade_futter",
    "nbt": {
      "size": 2
    }
  }
}