{
  "type": "futurepack:research_shaped",
  "group": "futurepack",
  "pattern": [
    "GSG",
    "ADA",
    "ACA"
  ],
  "key": {
    "S": {
      "item": "futurepack:scrench"
    },
    "A": {
      "tag": "forge:ingots/aluminum"
    },
    "C": {
      "item": "futurepack:chip_logic"
    },
    "D": {
      "item": "futurepack:display"
    },
    "G": {
      "tag": "forge:dusts/glowstone"
    }
  },
  "result": {
    "item": "futurepack:hologram_controler"
  }
}