{
  "type": "minecraft:crafting_shaped",
  "group": "futurepack",
  "pattern": [
    "EEE",
    "SSS"
  ],
  "key": {
    "E": {
      "item": "futurepack:erse"
    },
    "S": {
      "item": "minecraft:sugar"
    }
  },
  "result": {
    "item": "futurepack:ersemarmelade",
    "count": 3
  }
}