{
  "type": "crafting_shaped",
  "group": "futurepack",
  "pattern": [
    "HHH",
    "H H",
    "H H"
  ],
  "key": {
    "H": [
      {
        "tag": "forge:ingots/magnetite"
      }
    ]
  },
  "result": {
    "item": "futurepack:magnet_leggings"
  }
}