{
  "type": "futurepack:research_shaped",
  "group": "futurepack",
  "pattern": [
    "LLL"
  ],
  "key": {
    "L": {
      "item": "futurepack:metal_block_ventilation"
    }
  },
  "result": {
    "item": "futurepack:metal_ventilation_slab",
    "count": 6
  }
}