{
  "type": "futurepack:research_shaped",
  "group": "futurepack",
  "pattern": [
    "TDT",
    "SMS",
    "CNC"
  ],
  "key": {
    "T": {
      "item": "futurepack:parts_gold"
    },
    "D": {
      "item": "futurepack:scrench"
    },
    "S": {
      "item": "futurepack:ingot_silicon"
    },
    "M": {
      "item": "futurepack:color_iron_black"
    },
    "N": {
      "item": "futurepack:coil_neon"
    },
    "C": {
      "item": "futurepack:wire_normal"
    }
  },
  "result": {
    "item": "futurepack:modul_1_black"
  }
}