{
  "type": "futurepack:research_shaped",
  "group": "futurepack",
  "pattern": [
    "PGP",
    " T "
  ],
  "key": {
    "T": {
      "item": "futurepack:lack_tank_empty"
    },
    "P": {
      "item": "futurepack:polymer"
    },
    "G": {
      "item": "futurepack:metal_gitter_pane"
    }
  },
  "result": {
    "item": "futurepack:modul_oxygen_mask"
  }
}