{
  "type": "futurepack:research_shaped",
  "group": "futurepack",
  "pattern": [
    "TDT",
    "SMS",
    "PCP"
  ],
  "key": {
    "T": {
      "item": "futurepack:parts_gold"
    },
    "D": {
      "item": "futurepack:scrench"
    },
    "S": {
      "item": "futurepack:ingot_silicon"
    },
    "M": {
      "item": "futurepack:color_iron_black"
    },
    "C": {
      "item": "futurepack:coil_gold"
    },
    "P": {
      "item": "futurepack:aiflash0"
    }
  },
  "result": {
    "item": "futurepack:modul_2_black"
  }
}