{
  "type": "futurepack:research_shaped",
  "group": "futurepack",
  "pattern": [
    "SMS",
    "SMS",
    "SMS"
  ],
  "key": {
    "S": {
      "tag": "forge:rods/iron"
    },
    "M": {
      "item": "futurepack:composite_metal"
    }
  },
  "result": {
    "item": "futurepack:monorail",
    "count": 8
  }
}