{
  "type": "futurepack:research_shaped",
  "group": "futurepack",
  "pattern": [
    "T",
    "P"
  ],
  "key": {
    "T": [{
        "item": "futurepack:rs_timer"
    }],
    "P": [{
        "item": "futurepack:pusher"
    }]
  },
  "result": {
    "item": "futurepack:pusher_ticking",
    "count": 2
  }
}
