{
  "type": "futurepack:research_shaped",
  "group": "futurepack",
  "pattern": [
    "OBO",
    "WFR",
    "OBO"
  ],
  "key": {
    "B": {
      "item": "futurepack:battery_neon"
    },
    "W": {
      "item": "futurepack:wire_normal"
    },
    "R": {
      "tag": "forge:storage_blocks/redstone"
    },
    "F": {
      "item": "futurepack:color_iron_black"
    },
    "O": {
      "item": "futurepack:composite_metal"
    }
  },
  "result": {
    "item": "futurepack:rf2ne_converter_black"
  }
}