{
  "type": "futurepack:research_shaped",
  "group": "futurepack",
  "pattern": [
    " B ",
    "PFC",
    " S "
  ],
  "key": {
    "F": {
      "item": "futurepack:item_filter"
    },
    "B": {
    	"tag": "forge:dyes/black"
    },
    "C": {
    	"item": "futurepack:chip_ai"
    },
    "P": {
    	"item": "minecraft:paper"
    },
    "S": {
    	"item": "minecraft:feather" 
    }
  },
  "result": {
    "item": "futurepack:script_filter"
  }
}