{
    "variants": {
        "facing=down": {"model": "futurepack:spacedoor"},
		"facing=up": {"model": "futurepack:spacedoor"},
        "facing=north": {"model": "futurepack:spacedoor"},
		"facing=south": {"model": "futurepack:spacedoor"},
		"facing=west": {"model": "futurepack:spacedoor"},
		"facing=east": {"model": "futurepack:spacedoor"}				
    }
}
