[
  {
    "id": "story.tec_dungeon",
    "page": "story",
    "x": -4,
    "y": -4,
    "parents": [
      "get_started"
    ],
    "time": 0,
    "need": [],
    "icon": {
      "name": "futurepack:escanner"
    },
    "enables": [
      {
        "name": "futurepack:escanner"
      }
    ]
  },
  {
    "id": "hs.geologie",
    "page": "story",
    "x": -3,
    "y": -3,
    "parents": [],
    "picon": "GEOLOGIE",
    "time": 1,
    "need": [],
    "enables": []
  },
  {
    "id": "hs.metallurgie",
    "page": "story",
    "x": -3,
    "y": -2,
    "parents": [],
    "picon": "METALLURGIE",
    "time": 1,
    "need": [],
    "enables": []
  },
  {
    "id": "hs.biologie",
    "page": "story",
    "x": -3,
    "y": -1,
    "parents": [],
    "picon": "BIOLOGIE",
    "time": 1,
    "need": [],
    "enables": []
  },
  {
    "id": "hs.tierhaltung",
    "page": "story",
    "x": -3,
    "y": 0,
    "parents": [],
    "picon": "TIERHALTUNG",
    "time": 1,
    "need": [],
    "enables": []
  },
  {
    "id": "hs.morphologie",
    "page": "story",
    "x": -3,
    "y": 1,
    "parents": [],
    "picon": "MORPHOLOGIE",
    "time": 1,
    "need": [],
    "enables": []
  },
  {
    "id": "hs.logistik",
    "page": "story",
    "x": -3,
    "y": 2,
    "parents": [],
    "picon": "LOGISTIK",
    "time": 1,
    "need": [],
    "enables": []
  },
  {
    "id": "hs.chemie",
    "page": "story",
    "x": -1,
    "y": -3,
    "parents": [],
    "picon": "CHEMIE",
    "time": 1,
    "need": [],
    "enables": []
  },
  {
    "id": "hs.thermodynamic",
    "page": "story",
    "x": -1,
    "y": -2,
    "parents": [],
    "picon": "THERMODYNAMIC",
    "time": 1,
    "need": [],
    "enables": []
  },
  {
    "id": "hs.maschinenbau",
    "page": "story",
    "x": -1,
    "y": -1,
    "parents": [],
    "picon": "MASCHINENBAU",
    "time": 1,
    "need": [],
    "enables": []
  },
  {
    "id": "hs.hydraulic",
    "page": "story",
    "x": -1,
    "y": 0,
    "parents": [],
    "picon": "HYDRAULIC",
    "time": 1,
    "need": [],
    "enables": []
  },
  {
    "id": "hs.energieverbindungen",
    "page": "story",
    "x": -1,
    "y": 1,
    "parents": [],
    "picon": "ENERGIEVERBINDUNG",
    "time": 1,
    "need": [],
    "enables": []
  },
  {
    "id": "hs.neonenergie",
    "page": "story",
    "x": -1,
    "y": 2,
    "parents": [],
    "picon": "NEONENERGIE",
    "time": 1,
    "need": [],
    "enables": []
  },
  {
    "id": "story.labor",
    "page": "story",
    "x": -2,
    "y": -4,
    "parents": [
      "hs.geologie",
      "hs.chemie",
      "hs.tierhaltung",
      "hs.logistik",
      "hs.biologie",
      "hs.morphologie",
      "hs.metallurgie",
      "hs.maschinenbau",
      "hs.thermodynamic",
      "hs.energieverbindungen",
      "hs.neonenergie",
      "hs.hydraulic"
    ],
    "picon": "FORSCHUNG",
    "time": 0,
    "visibilitylevel": 1,
    "need": [],
    "enables": []
  },
  {
    "id": "story.labor2",
    "page": "story",
    "x": 0,
    "y": -4,
    "parents": [
      "futurepack:labor"
    ],
    "time": 0,
    "visibilitylevel": 2,
    "need": [],
    "icon": {
      "name": "futurepack:research_blueprint"
    },
    "enables": []
  },
  {
    "id": "story.crystal_n",
    "page": "story",
    "x": 1,
    "y": -3,
    "parents": [
      "futurepack:crys_neon"
    ],
    "level": 0,
    "time": 0,
    "visibilitylevel": 2,
    "need": [],
    "icon": {
      "name": "futurepack:crystal_neon"
    },
    "enables": []
  },
  {
    "id": "story.crystal_a",
    "page": "story",
    "x": 1,
    "y": -2,
    "parents": [
      "futurepack:crys_alutin"
    ],
    "level": 0,
    "time": 0,
    "visibilitylevel": 2,
    "need": [],
    "icon": {
      "name": "futurepack:crystal_alutin"
    },
    "enables": []
  },
  {
    "id": "story.crystal_g",
    "page": "story",
    "x": 1,
    "y": -1,
    "parents": [
      "futurepack:crys_glowtite"
    ],
    "level": 0,
    "time": 0,
    "visibilitylevel": 2,
    "need": [],
    "icon": {
      "name": "futurepack:crystal_glowtite"
    },
    "enables": []
  },
  {
    "id": "story.crystal_r",
    "page": "story",
    "x": 1,
    "y": 0,
    "parents": [
      "futurepack:crys_retium"
    ],
    "level": 0,
    "time": 0,
    "visibilitylevel": 2,
    "need": [],
    "icon": {
      "name": "futurepack:crystal_retium"
    },
    "enables": []
  },
  {
    "id": "story.crystal_b",
    "page": "story",
    "x": 1,
    "y": 1,
    "parents": [
      "futurepack:crys_bioterium"
    ],
    "level": 0,
    "time": 0,
    "visibilitylevel": 2,
    "need": [],
    "icon": {
      "name": "futurepack:crystal_bioterium"
    },
    "enables": []
  },
  {
    "id": "story.neonenergie",
    "page": "story",
    "x": 1,
    "y": 2,
    "parents": [
      "futurepack:neon_energy"
    ],
    "picon": "NEONENERGIE",
    "level": 0,
    "time": 0,
    "visibilitylevel": 2,
    "need": [],
    "enables": []
  },
  {
    "id": "story.crystal_sa",
    "page": "story",
    "x": 3,
    "y": -3,
    "parents": [
      "story.crystal_n",
      "production.zent.neon"
    ],
    "level": 0,
    "time": 0,
    "visibilitylevel": 2,
    "need": [],
    "icon": {
      "tag": "forge:gems/bitripentium"
    },
    "enables": []
  },
  {
    "id": "story.erse",
    "page": "story",
    "x": 3,
    "y": -2,
    "parents": [
      "futurepack:erse"
    ],
    "level": 0,
    "time": 0,
    "visibilitylevel": 2,
    "need": [],
    "icon": {
      "name": "futurepack:erse"
    },
    "enables": []
  },
  {
    "id": "story.dungeon_tectern",
    "page": "story",
    "x": 3,
    "y": -1,
    "parents": [ "futurepack:brain_touch" ],
    "level": 0,
    "time": 0,
    "visibilitylevel": 2,
    "need": [ ],
    "icon": {
      "name": "futurepack:tectern"
    },
    "enables": [
      {
        "name": "futurepack:tectern"
      }
    ]
  },
  {
    "id": "story.dungeon_ancient_energy",
    "page": "story",
    "x": 3,
    "y": 0,
    "parents": [ "futurepack:energy_sponge" ],
    "level": 0,
    "time": 0,
    "visibilitylevel": 2,
    "need": [ ],
    "icon": {
      "name": "futurepack:ancient_energy"
    },
    "enables": [
      {
        "name": "futurepack:ancient_energy"
      }
    ]
  },
  {
    "id": "story.mainboard",
    "page": "story",
    "x": 3,
    "y": 2,
    "parents": [
      "futurepack:mainboard"
    ],
    "level": 0,
    "time": 0,
    "visibilitylevel": 2,
    "need": [],
    "icon": {
      "name": "futurepack:maschineboard"
    },
    "enables": []
  },
  {
    "id": "story.menelaus",
    "page": "story",
    "x": -2,
    "y": 4,
    "parents": [
      "hs.menelaus.surface",
      "hs.menelaus.metalhaltig",
      "hs.menelaus.crystals",
      "hs.menelaus.caves",
      "hs.menelaus.tree",
      "hs.menelaus.mycel",
      "hs.menelaus.mendel",
      "hs.menelaus.entity"
    ],
    "picon": "MENRESULT",
    "time": 0,
    "visibilitylevel": 1,
    "need": [],
    "enables": []
  },
  {
    "id": "hs.menelaus.surface",
    "page": "story",
    "x": -3,
    "y": 5,
    "parents": [
      "menelaus"
    ],
    "picon": "MENTERRA",
    "time": 1,
    "need": [],
    "enables": []
  },
  {
    "id": "hs.menelaus.metalhaltig",
    "page": "story",
    "x": -3,
    "y": 6,
    "parents": [
      "menelaus"
    ],
    "time": 1,
    "need": [],
    "icon": {
      "tag": "forge:ingots/rare_earth"
    },
    "enables": []
  },
  {
    "id": "hs.menelaus.crystals",
    "page": "story",
    "x": -3,
    "y": 7,
    "parents": [
      "menelaus"
    ],
    "time": 1,
    "need": [],
    "icon": {
      "name": "futurepack:crystal_glowtite"
    },
    "enables": []
  },
  {
    "id": "hs.menelaus.caves",
    "page": "story",
    "x": -3,
    "y": 8,
    "parents": [
      "menelaus"
    ],
    "picon": "MENCAVE",
    "time": 1,
    "need": [],
    "enables": []
  },
  {
    "id": "hs.menelaus.tree",
    "page": "story",
    "x": -1,
    "y": 5,
    "parents": [
      "menelaus"
    ],
    "time": 1,
    "need": [],
    "icon": {
      "name": "futurepack:sapling_mushroom"
    },
    "enables": []
  },
  {
    "id": "hs.menelaus.mycel",
    "page": "story",
    "x": -1,
    "y": 6,
    "parents": [
      "menelaus"
    ],
    "picon": "MENSHROOM",
    "time": 1,
    "need": [],
    "enables": []
  },
  {
    "id": "hs.menelaus.mendel",
    "page": "story",
    "x": -1,
    "y": 7,
    "parents": [
      "menelaus"
    ],
    "time": 1,
    "need": [],
    "icon": {
      "name": "futurepack:mendel_flower"
    },
    "enables": []
  },
  {
    "id": "hs.menelaus.entity",
    "page": "story",
    "x": -1,
    "y": 8,
    "parents": [
      "menelaus"
    ],
    "picon": "MENLIFE",
    "time": 1,
    "need": [],
    "enables": []
  },
  {
    "id": "story.tyros",
    "page": "story",
    "x": 2,
    "y": 4,
    "parents": [
      "hs.tyros.surface",
      "hs.tyros.prismid",
      "hs.tyros.crystals",
      "hs.tyros.caves",
      "hs.tyros.tree",
      "hs.tyros.deadlands",
      "hs.tyros.topinambur",
      "hs.tyros.entity"
    ],
    "picon": "TYROSRESULT",
    "time": 0,
    "visibilitylevel": 1,
    "need": [],
    "enables": []
  },
  {
    "id": "hs.tyros.surface",
    "page": "story",
    "x": 1,
    "y": 5,
    "parents": [
      "tyros"
    ],
    "picon": "TYROSTERRA",
    "time": 1,
    "need": [],
    "enables": []
  },
  {
    "id": "hs.tyros.prismid",
    "page": "story",
    "x": 1,
    "y": 6,
    "parents": [
      "tyros"
    ],
    "time": 1,
    "need": [],
    "icon": {
      "name": "futurepack:prismide"
    },
    "enables": []
  },
  {
    "id": "hs.tyros.crystals",
    "page": "story",
    "x": 1,
    "y": 7,
    "parents": [
      "tyros"
    ],
    "time": 1,
    "need": [],
    "icon": {
      "name": "futurepack:crystal_bioterium"
    },
    "enables": []
  },
  {
    "id": "hs.tyros.caves",
    "page": "story",
    "x": 1,
    "y": 8,
    "parents": [
      "tyros"
    ],
    "picon": "TYROSCAVE",
    "time": 1,
    "need": [],
    "enables": []
  },
  {
    "id": "hs.tyros.tree",
    "page": "story",
    "x": 3,
    "y": 5,
    "parents": [
      "tyros"
    ],
    "picon": "TYROSTREE",
    "time": 1,
    "need": [],
    "enables": []
  },
  {
    "id": "hs.tyros.deadlands",
    "page": "story",
    "x": 3,
    "y": 6,
    "parents": [
      "tyros"
    ],
    "picon": "TYROSDEAD",
    "time": 1,
    "need": [],
    "enables": []
  },
  {
    "id": "hs.tyros.topinambur",
    "page": "story",
    "x": 3,
    "y": 7,
    "parents": [
      "tyros"
    ],
    "time": 1,
    "need": [],
    "icon": {
      "name": "futurepack:topinambur_flower"
    },
    "enables": []
  },
  {
    "id": "hs.tyros.entity",
    "page": "story",
    "x": 3,
    "y": 8,
    "parents": [
      "tyros"
    ],
    "picon": "TYROSLIFE",
    "time": 1,
    "need": [],
    "enables": []
  },
  {
    "id": "story.kryptographie",
    "page": "story",
    "x": 6,
    "y": -4,
    "parents": [],
    "picon": "KRYPTOGRAPHIE",
    "level": 0,
    "time": 1,
    "need": [],
    "enables": []
  },
  {
    "id": "story.dungeon_1",
    "page": "story",
    "x": 5,
    "y": -3,
    "parents": [
      "story.kryptographie"
    ],
    "level": 1,
    "time": 1200,
    "neon": 3600,
    "need": [
      {
        "name": "futurepack:battery_n"
      },
      {
        "name": "futurepack:core_a1"
      }
    ],
    "icon": {
      "name": "futurepack:dungeon_key_0"
    },
    "enables": [
      {
        "name": "futurepack:dungeon_key_0"
      }
    ]
  },
  {
    "id": "story.dungeon_2",
    "page": "story",
    "x": 5,
    "y": -2,
    "parents": [
      "story.kryptographie"
    ],
    "level": 2,
    "time": 2400,
    "neon": 7200,
    "support": 64,
    "visibilitylevel": 2,
    "need": [
      {
        "name": "futurepack:energy_cell"
      },
      {
        "name": "futurepack:core_tct"
      },
      {
        "name": "futurepack:chip_support"
      }
    ],
    "icon": {
      "name": "futurepack:dungeon_key_1"
    },
    "enables": [
      {
        "name": "futurepack:dungeon_key_1"
      }
    ]
  },
  {
    "id": "story.dungeon_3",
    "page": "story",
    "x": 5,
    "y": -1,
    "parents": [
      "story.kryptographie"
    ],
    "level": 3,
    "time": 4800,
    "neon": 14400,
    "support": 128,
    "expLvl": 50,
    "visibilitylevel": 2,
    "need": [
      {
        "name": "futurepack:compact_energy_cell"
      },
      {
        "name": "futurepack:core_master"
      },
      {
        "name": "futurepack:chip_ultimate"
      },
      {
        "tag": "forge:ingots/bioterium"
      }
    ],
    "icon": {
      "name": "futurepack:dungeon_key_2"
    },
    "enables": [
      {
        "name": "futurepack:dungeon_key_2"
      }
    ]
  },
  {
    "id": "story.dungeon_4",
    "page": "story",
    "x": 5,
    "y": 0,
    "parents": [
      "story.kryptographie"
    ],
    "level": 3,
    "time": 9600,
    "neon": 28800,
    "support": 256,
    "expLvl": 100,
    "visibilitylevel": 2,
    "need": [
      "nether_star",
      "dragon_egg",
      {
        "name": "futurepack:core_zombie"
      },
      {
        "name": "futurepack:iron_stick"
      }
    ],
    "icon": {
      "name": "futurepack:dungeon_key_3"
    },
    "enables": [
      {
        "name": "futurepack:dungeon_key_3"
      }
    ]
  },
  {
    "id": "story.fake.mincra_disk",
    "page": "story",
    "x": 7,
    "y": -2,
    "parents": [
      "futurepack:labor"
    ],
    "time": 0,
    "visibilitylevel": 4,
    "need": [],
    "icon": {
      "name": "futurepack:core_zombie"
    },
    "enables": [
      {
        "name": "futurepack:record_futurepack"
      }
    ]
  },
  {
    "id": "story.nav.mincra",
    "page": "story",
    "x": 7,
    "y": -2,
    "parents": [
      "story.kryptographie",
	  "story.fake.mincra_disk"
    ],
    "aspects": [
      "energieverbindung",
      "hydraulic",
	  "neonenergie",
	  "tierhaltung"
    ],
    "level": 1,
    "time": 2400,
    "neon": 2400,
    "need": [
      {
        "name": "futurepack:crystal_neon"
      },
      {
        "name": "minecraft:dirt"
      }
    ],
    "visibilitylevel": 0,
    "icon": {
      "name": "futurepack:record_futurepack"
    },
    "enables": [
      {
      }
    ]
  },
  {
    "id": "story.fake.menelaus_disk",
    "page": "story",
    "x": 7,
    "y": -1,
    "parents": [
      "futurepack:labor"
    ],
    "time": 0,
    "visibilitylevel": 4,
    "need": [],
    "icon": {
      "name": "futurepack:core_zombie"
    },
    "enables": [
      {
        "name": "futurepack:record_fp_menelaus"
      }
    ]
  },
  {
    "id": "story.nav.menelaus",
    "page": "story",
    "x": 7,
    "y": -1,
    "parents": [
      "story.kryptographie",
	  "story.fake.menelaus_disk"
    ],
    "aspects": [
	  "energieverbindung",
      "hydraulic",
      "metallurgie",
      "thermodynamic"
    ],
    "level": 2,
    "time": 1200,
    "neon": 192000,
    "support": 160,
    "need": [
      {
        "name": "futurepack:battery_l"
      },
      {
        "name": "futurepack:core_p2"
      },
      {
		"size": 16,
        "tag": "minecraft:sand"
      }
    ],
    "visibilitylevel": 0,
    "icon": {
      "name": "futurepack:record_fp_menelaus"
    },
    "enables": [ ]
  },
  {
    "id": "story.fake.tyros_disk",
    "page": "story",
    "x": 8,
    "y": -1,
    "parents": [
      "futurepack:labor"
    ],
    "time": 0,
    "visibilitylevel": 4,
    "need": [],
    "icon": {
      "name": "futurepack:core_zombie"
    },
    "enables": [
      {
        "name": "futurepack:record_fp_tyros"
      }
    ]
  },
  {
    "id": "story.nav.tyros",
    "page": "story",
    "x": 8,
    "y": -1,
    "parents": [
	  "story.nav.menelaus",
	  "story.fake.tyros_disk"
    ],
    "aspects": [
	  "energieverbindung",
      "hydraulic",
      "biologie",
      "chemie"
    ],
    "level": 3,
    "time": 1200,
    "neon": 384000,
    "support": 640,
	"expLvl": 600,
    "need": [
      {
        "size": 8,
        "tag": "forge:ingots/quantanium"
      },
      {
        "size": 8,
        "name": "futurepack:polymer"
      },
      {
        "size": 1,
        "name": "futurepack:core_master"
      },
      {
        "size": 1,
        "tag": "minecraft:saplings"
      }
    ],
    "visibilitylevel": 0,
    "icon": {
      "name": "futurepack:record_fp_tyros"
    },
    "enables": [ ]
  },
  {
    "id": "story.fake.entros_disk",
    "page": "story",
    "x": 8,
    "y": -1,
    "parents": [
      "futurepack:labor"
    ],
    "time": 0,
    "visibilitylevel": 4,
    "need": [],
    "icon": {
      "name": "futurepack:core_zombie"
    },
    "enables": [
      {
        "name": "futurepack:record_fp_entros"
      }
    ]
  },
  {
    "id": "story.nav.entros",
    "page": "story",
    "x": 9,
    "y": -1,
    "parents": [
	  "story.nav.tyros",
	  "story.fake.entros_disk"
    ],
    "aspects": [
	  "energieverbindung",
      "hydraulic",
      "metallurgie",
      "thermodynamic",
	  "morphologie"
    ],
    "level": 3,
    "time": 8600,
    "neon": 1536000,
    "support": 1600,
	"expLvl": 4800,
    "need": [
      {
        "size": 16,
        "tag": "forge:gems/prismide"
      },
      {
        "size": 1,
        "name": "futurepack:lense_purple"
      },
      {
        "size": 1,
        "name": "futurepack:core_torus"
      },
      {
        "size": 1,
        "name": "futurepack:modul_shield"
      }
    ],
    "visibilitylevel": 0,
    "icon": {
      "name": "futurepack:record_fp_entros"
    },
    "enables": [
      {
      }
    ]
  },
  {
    "id": "story.fake.envia_disk",
    "page": "story",
    "x": 7,
    "y": 0,
    "parents": [
      "futurepack:labor"
    ],
    "time": 0,
    "visibilitylevel": 4,
    "need": [],
    "icon": {
      "name": "futurepack:core_zombie"
    },
    "enables": [
      {
        "name": "futurepack:record_fp_envia"
      }
    ]
  },
  {
    "id": "story.nav.envia",
    "page": "story",
    "x": 7,
    "y": 0,
    "parents": [
      "story.kryptographie",
	  "story.fake.envia_disk"
    ],
    "aspects": [
	  "energieverbindung",
      "hydraulic",
      "metallurgie",
      "thermodynamic"
    ],
    "level": 2,
    "time": 1200,
    "neon": 192000,
    "support": 160,
    "need": [
      {
        "name": "futurepack:battery_l"
      },
      {
        "name": "futurepack:core_p2"
      },
      {
		"size": 16,
        "name": "minecraft:snow_block"
      }
    ],
    "visibilitylevel": 0,
    "icon": {
      "name": "futurepack:record_fp_envia"
    },
    "enables": [ ]
  },
  {
    "id": "story.fake.lyrara_disk",
    "page": "story",
    "x": 8,
    "y": 0,
    "parents": [
      "futurepack:labor"
    ],
    "time": 0,
    "visibilitylevel": 4,
    "need": [],
    "icon": {
      "name": "futurepack:core_zombie"
    },
    "enables": [
      {
        "name": "futurepack:record_fp_lyrara"
      }
    ]
  },
  {
    "id": "story.nav.lyrara",
    "page": "story",
    "x": 8,
    "y": 0,
    "parents": [
	  "story.nav.envia",
	  "story.fake.lyrara_disk"
    ],
    "aspects": [
	  "energieverbindung",
      "hydraulic",
      "tierhaltung",
      "chemie"
    ],
    "level": 3,
    "time": 1200,
    "neon": 384000,
    "support": 640,
	"expLvl": 600,
    "need": [
      {
        "size": 8,
        "tag": "forge:ingots/quantanium"
      },
      {
        "size": 8,
        "name": "futurepack:polymer"
      },
      {
        "size": 1,
        "name": "futurepack:core_master"
      },
      {
        "size": 1,
        "name": "futurepack:modul_oxygen_tank"
      }
    ],
    "visibilitylevel": 0,
    "icon": {
      "name": "futurepack:record_fp_lyrara"
    },
    "enables": [ ]
  },
  {
    "id": "story.fake.asteroid_disk",
    "page": "story",
    "x": 7,
    "y": 1,
    "parents": [
      "futurepack:labor"
    ],
    "time": 0,
    "visibilitylevel": 4,
    "need": [],
    "icon": {
      "name": "futurepack:core_zombie"
    },
    "enables": [
      {
        "name": "futurepack:record_fp_unknown"
      }
    ]
  },
  {
    "id": "story.nav.asteroid",
    "page": "story",
    "x": 7,
    "y": 1,
    "parents": [
      "story.kryptographie",
	  "story.fake.asteroid_disk"
    ],
    "aspects": [
      "energieverbindung",
      "hydraulic",
      "chemie"
    ],
    "level": 2,
    "time": 2400,
    "neon": 7200,
    "support": 64,
    "need": [
      {
        "name": "futurepack:energy_cell"
      },
      {
        "name": "futurepack:core_tct"
      },
      {
        "name": "futurepack:chip_support"
      }
    ],
    "visibilitylevel": 0,
    "icon": {
      "name": "futurepack:record_fp_unknown"
    },
    "enables": [ ]
  }
]