{
  "type": "tconstruct:melting",
  "conditions": [
        {
            "type": "forge:mod_loaded",
            "modid": "tconstruct"
        }
    ],
    
  "ingredient": {
    "item": "futurepack:metal_block"
  },
  "result": {
    "fluid": "futurepack:molten_composite_metal",
    "amount": 576
  },
  "temperature": 900,
  "time": 234
}