{
  "type": "futurepack:research_shaped",
  "group": "futurepack",
  "pattern": [
    "CPC"
  ],
  "key": {
    "C": {
      "constant": "futurepack:ingot_copper"
    },
    "P": {
      "constant": "futurepack:copperparts"
    }
  },
  "result": {
    "item": "futurepack:fluid_tube",
    "count": 4
  }
}