{
    "pools": 
    [
		{
            "name":"story_logs",
            "rolls": 1,
            "entries": 
            [
                {
                    "type": "item",
                    "name": "futurepack:dungeon_tablet",
                    "weight": 100,
                    "functions": 
                    [
                        {
                            "function": "minecraft:set_count",
                            "count": 1
                        },
                        {
                            "function": "minecraft:set_nbt",
                            "tag": "{research_path:\"futurepack:story\/log_s0447_1\"}"
                        }
                    ]
                },
                {
                    "type": "item",
                    "name": "futurepack:dungeon_tablet",
                    "weight": 100,
                    "functions": 
                    [
                        {
                            "function": "minecraft:set_count",
                            "count": 1
                        },
                        {
                            "function": "minecraft:set_nbt",
                            "tag": "{research_path:\"futurepack:story\/log_s0447_2\"}"
                        }
                    ]
                },
                {
                    "type": "item",
                    "name": "futurepack:dungeon_tablet",
                    "weight": 100,
                    "functions": 
                    [
                        {
                            "function": "minecraft:set_count",
                            "count": 1
                        },
                        {
                            "function": "minecraft:set_nbt",
                            "tag": "{research_path:\"futurepack:story\/log_s0447_3\"}"
                        }
                    ]
                },
                {
                    "type": "item",
                    "name": "futurepack:dungeon_tablet",
                    "weight": 100,
                    "functions": 
                    [
                        {
                            "function": "minecraft:set_count",
                            "count": 1
                        },
                        {
                            "function": "minecraft:set_nbt",
                            "tag": "{research_path:\"futurepack:story\/log_s0447_4\"}"
                        }
                    ]
                },
                {
                    "type": "item",
                    "name": "futurepack:dungeon_tablet",
                    "weight": 100,
                    "functions": 
                    [
                        {
                            "function": "minecraft:set_count",
                            "count": 1
                        },
                        {
                            "function": "minecraft:set_nbt",
                            "tag": "{research_path:\"futurepack:story\/log_s0447_5\"}"
                        }
                    ]
                },
                {
                    "type": "item",
                    "name": "futurepack:dungeon_tablet",
                    "weight": 100,
                    "functions": 
                    [
                        {
                            "function": "minecraft:set_count",
                            "count": 1
                        },
                        {
                            "function": "minecraft:set_nbt",
                            "tag": "{research_path:\"futurepack:story\/log_s0447_6\"}"
                        }
                    ]
                }
            ]
        }
    ]
}
