{
  "replace": false,
  "values": [
    "futurepack:t0_generator",
    "futurepack:dungeon_checkpoint",
    "futurepack:external_core",
    "futurepack:fluid_pump",
    "futurepack:deepcore_miner",
    "futurepack:advanced_board_computer_black",
	"futurepack:advanced_board_computer_gray",
	"futurepack:advanced_board_computer_white",
	"futurepack:airlock_door",
	"futurepack:antenna_black",
	"futurepack:antenna_gray",
	"futurepack:antenna_white",
	"futurepack:assembly_table_black",
	"futurepack:assembly_table_gray",
	"futurepack:assembly_table_white",
	"futurepack:battery_box_black",
	"futurepack:battery_box_gray",
	"futurepack:battery_box_white",
	"futurepack:block_breaker",
	"futurepack:block_placer",
	"futurepack:board_computer_black",
	"futurepack:board_computer_gray",
	"futurepack:board_computer_white",
	"futurepack:button",
	"futurepack:composite_chest",
	"futurepack:crusher_black",
	"futurepack:crusher_gray",
	"futurepack:crusher_white",
	"futurepack:drone_station",
	"futurepack:electro_magnet",
	"futurepack:entity_eater",
	"futurepack:entity_healer",
	"futurepack:entity_killer",
	"futurepack:fermentation_barrel",
	"futurepack:flash_server_black",
	"futurepack:flash_server_gray",
	"futurepack:flash_server_white",
	"futurepack:fp_lever",
	"futurepack:ftl_drive",
	"futurepack:fuel_cell",
	"futurepack:gas_turbine_black",
	"futurepack:gas_turbine_gray",
	"futurepack:gas_turbine_white",
	"futurepack:improve_components_black",
	"futurepack:improve_components_gray",
	"futurepack:improve_components_white",
	"futurepack:industrial_furnace",
	"futurepack:industrial_neon_furnace_black",
	"futurepack:industrial_neon_furnace_gray",
	"futurepack:industrial_neon_furnace_white",
	"futurepack:infusion_generator_black",
	"futurepack:infusion_generator_gray",
	"futurepack:infusion_generator_white",
	"futurepack:ion_collector_black",
	"futurepack:ion_collector_gray",
	"futurepack:ion_collector_white",
	"futurepack:life_support_system_black",
	"futurepack:life_support_system_gray",
	"futurepack:life_support_system_white",
	"futurepack:logistic_chest",
	"futurepack:modul_1_black",
	"futurepack:modul_1_calculation_black",
	"futurepack:modul_1_calculation_gray",
	"futurepack:modul_1_calculation_white",
	"futurepack:modul_1_gray",
	"futurepack:modul_1_white",
	"futurepack:modul_2_black",
	"futurepack:modul_2_gray",
	"futurepack:modul_2_white",
	"futurepack:modul_3_black",
	"futurepack:modul_3_gray",
	"futurepack:modul_3_white",
	"futurepack:neon_engine",
	"futurepack:neon_furnace_black",
	"futurepack:neon_furnace_gray",
	"futurepack:neon_furnace_white",
	"futurepack:opti_assembler_black",
	"futurepack:opti_assembler_gray",
	"futurepack:opti_assembler_white",
	"futurepack:opti_bench_black",
	"futurepack:opti_bench_gray",
	"futurepack:opti_bench_white",
	"futurepack:optibench_crafting_module_white",
	"futurepack:part_press",
	"futurepack:pusher",
	"futurepack:pusher_ticking",
	"futurepack:radar",
	"futurepack:recycler_black",
	"futurepack:recycler_gray",
	"futurepack:recycler_white",
	"futurepack:researcher_black",
	"futurepack:researcher_gray",
	"futurepack:researcher_white",
	"futurepack:rf2ne_converter_black",
	"futurepack:rf2ne_converter_gray",
	"futurepack:rf2ne_converter_white",
	"futurepack:rocket_launcher",
	"futurepack:scanner_block_black",
	"futurepack:scanner_block_gray",
	"futurepack:scanner_block_white",
	"futurepack:shared_researcher_black",
	"futurepack:shared_researcher_gray",
	"futurepack:shared_researcher_white",
	"futurepack:solar_panel_black",
	"futurepack:solar_panel_gray",
	"futurepack:solar_panel_white",
	"futurepack:sorter",
	"futurepack:techtable",
	"futurepack:tectern",
	"futurepack:teleporter",
	"futurepack:wardrobe_black_large_1",
	"futurepack:wardrobe_black_large_2",
	"futurepack:wardrobe_black_normal_1",
	"futurepack:wardrobe_black_normal_2",
	"futurepack:wardrobe_light_gray_large_1",
	"futurepack:wardrobe_light_gray_large_2",
	"futurepack:wardrobe_light_gray_normal_1",
	"futurepack:wardrobe_light_gray_normal_2",
	"futurepack:wardrobe_white_large_1",
	"futurepack:wardrobe_white_large_2",
	"futurepack:wardrobe_white_normal_1",
	"futurepack:wardrobe_white_normal_2",
	"futurepack:water_cooler",
	"futurepack:water_turbine_black",
	"futurepack:water_turbine_gray",
	"futurepack:water_turbine_white",
	"futurepack:wr_receiver",
	"futurepack:wr_transmitter",
	"futurepack:wr_transmitter_i",
	"futurepack:zentrifuge_black",
	"futurepack:zentrifuge_gray",
	"futurepack:zentrifuge_white",
	"futurepack:ore_teleporter",
	{"id":"futurepack:network_modem", "required":false}
  ]
}