{
  "replace": false,
  "values": [
    "futurepack:sand_m",
    "futurepack:gravel_m",
    "futurepack:dirt_m",
    "futurepack:grass_t",
    "futurepack:crystal_neon",
    "futurepack:crystal_alutin",
    "futurepack:crystal_retium",
    "futurepack:crystal_glowtite",
    "futurepack:crystal_bioterium"
  ]
}