{
  "config": {
    "feature": {
      "config": {
        "feature": {
          "config": {
            "features": [
              {
                "feature": "futurepack:tyros_tree",
                "chance": 0.833334
              },
              {
                "feature": "minecraft:fancy_oak",
                "chance": 0.833334
              },
              {
                "feature": "minecraft:jungle_bush",
                "chance": 0.166667
              },
              {
                "feature": "minecraft:mega_jungle_tree",
                "chance": 0.25
              }
            ],
            "default": "minecraft:jungle_tree"
          },
          "type": "minecraft:random_selector"
        },
        "decorator": {
          "config": {
            "outer": {
              "config": {},
              "type": "minecraft:square"
            },
            "inner": {
              "config": {
              	"heightmap": "OCEAN_FLOOR_WG"
              },
              "type": "minecraft:heightmap"
            }
          },
          "type": "minecraft:decorated"
        }
      },
      "type": "minecraft:decorated"
    },
    "decorator": {
      "config": {
        "count": 25,
        "extra_chance": 0.1,
        "extra_count": 10
      },
      "type": "minecraft:count_extra"
    }
  },
  "type": "minecraft:decorated"
}