{
  "config": {
    "max_water_depth": 2,
    "ignore_vines": true,
    "heightmap": "OCEAN_FLOOR_WG",
    "minimum_size": {
      "limit": 1,
      "lower_size": 0,
      "upper_size": 1,
      "type": "minecraft:two_layers_feature_size"
    },
    "dirt_provider": {
      "state": {
        "Name": "minecraft:dirt"
      },
      "type": "minecraft:simple_state_provider"
    },
    
    "decorators": [
      {
        "probability": 0.2,
        "type": "minecraft:cocoa"
      },
      {
        "type": "minecraft:trunk_vine"
      },
      {
        "type": "minecraft:leave_vine"
      }
    ],
    "trunk_provider": {
      "state": {
        "Properties": {
          "axis": "y"
        },
        "Name": "futurepack:log_tyros"
      },
      "type": "minecraft:simple_state_provider"
    },
    "foliage_provider": {
      "state": {
        "Properties": {
          "persistent": "false",
          "distance": "7",
          "light": "0"
        },
        "Name": "futurepack:leaves_tyros"
      },
      "type": "minecraft:simple_state_provider"
    },
    "foliage_placer": {
      "radius": 3,
      "offset": 0,
      "height": 4,
      "type": "minecraft:blob_foliage_placer"
    },
    "trunk_placer": {
      "base_height": 4,
      "height_rand_a": 10,
      "height_rand_b": 14,
      "type": "minecraft:straight_trunk_placer"
    },
    "sapling_provider": {
      "state": {
        "Properties": {
          "stage": "0"
        },
        "Name": "sapling_tyros"
      },
      "type": "minecraft:simple_state_provider"
    }
  },
  "type": "minecraft:tree"
}