{
  "availability" : {
    "tier" : 3,
    "categories" : [ "metal" ],
    "visible" : true,
    "gear_blacklist" : [ ],
    "can_salvage" : true
  },
  "crafting_items" : {
    "main" : {
      "item" : "futurepack:composite_metal"
    }
  },
  "name" : {
    "text" : "Composite Metal"
  },
  "stats" : {
    "main" : {
      "durability" : 270.0,
      "armor_durability" : 24.0,
      "enchantability" : 15.0,
      "harvest_level" : 3.0,
      "harvest_speed" : 6.0,
      "rarity" : 21.0,
      "melee_damage" : 3.0,
      "magic_damage" : 1.0,
      "attack_speed" : 0.2,
      "ranged_damage" : 1.1,
      "ranged_speed" : 0.2,
      "armor" : 15.0,
      "armor_toughness" : 1.0,
      "magic_armor" : 8.0,
      "silentgems:chargeability" : 1.3,
      "silentgear:projectile_speed" : 1.0,
      "silentgear:projectile_accuracy" : 1.1
    }
  },
  "traits" : {
    "main" : [ {
      "name" : "silentgear:malleable",
      "level" : 2
    }, {
      "name" : "silentgear:magnetic",
      "level" : 2
    } ]
  }
}