{
  "parent": "block/outer_stairs",
  "textures": {
    "bottom": "futurepack:blocks/deko/color_iron_light_blue",
    "top": "futurepack:blocks/deko/color_iron_light_blue",
    "side": "futurepack:blocks/deko/color_iron_light_blue"
  }
}