{
  "parent": "block/stairs",
  "textures": {
    "bottom": "futurepack:blocks/deko/color_iron_brown",
    "top": "futurepack:blocks/deko/color_iron_brown",
    "side": "futurepack:blocks/deko/color_iron_brown"
  }
}