{
	"parent": "block/cube",
	"textures": {
	"particle":"futurepack:blocks/machines/elektro_magnet_seite",
	"down":"futurepack:blocks/machines/elektro_magnet_unten",
	"up":"futurepack:blocks/machines/elektro_magnet_oben",
	"north":"futurepack:blocks/machines/elektro_magnet_seite",
	"east":"futurepack:blocks/machines/elektro_magnet_seite",
	"south":"futurepack:blocks/machines/elektro_magnet_seite",
	"west":"futurepack:blocks/machines/elektro_magnet_seite"
	}
}
