{
	"parent": "futurepack:block/flash_server_base",
	"textures": {
	"side":"futurepack:blocks/deko/color_iron_black",
	"front":"futurepack:blocks/machines/flash_server_s",
	"back":"futurepack:blocks/deko/luftung_black"
	}
}
