{
	"parent": "block/cube",
	"textures": {
		"particle":"futurepack:blocks/machines/neon_furnace_vorn_s_off",
		"down":"futurepack:blocks/deko/color_iron_black",
		"up":"futurepack:blocks/machines/wasserturbine_top_s",
		"north":"futurepack:blocks/machines/neon_furnace_vorn_s_off",
		"east":"futurepack:blocks/machines/neon_furnace_seite_s",
		"south":"futurepack:blocks/machines/neon_furnace_seite_s",
		"west":"futurepack:blocks/machines/neon_furnace_seite_s"
	}
}