{
	"parent": "futurepack:block/modul_base",
	"textures":
	{
		"metal":"futurepack:blocks/deko/color_iron_white",
		"server":"futurepack:blocks/inventory/server_front_w",
		"modul":"futurepack:blocks/inventory/modul_3_w",
		"lufter":"futurepack:blocks/machines/luftung_w"
	}
}
