{
    "parent": "block/block",
    "elements": [
        {   "from": [ 0, 0, 0 ],
            "to": [ 16, 16, 16 ],
            "faces": {
                "north": { "texture": "#sides", "uv": [ 0, 0, 16, 16 ], "cullface": "north" },
                "south": { "texture": "#sides", "uv": [ 0, 0, 16, 16 ], "cullface": "south" },
                "west":  { "texture": "#sides", "uv": [ 0, 0, 16, 16 ], "cullface": "west" },
                "east":  { "texture": "#sides", "uv": [ 0, 0, 16, 16 ], "cullface": "east" }
            }
        },
		{   "from": [ 15.99, 15.99, 15.99 ],
            "to": [ 0.01, 0.01, 0.01 ],
            "faces": {
                "north": { "texture": "#sides", "uv": [ 0, 16, 16, 0 ]  },
                "south": { "texture": "#sides", "uv": [ 0, 16, 16, 0 ] },
                "west":  { "texture": "#sides", "uv": [ 0, 16, 16, 0 ] },
                "east":  { "texture": "#sides", "uv": [ 0, 16, 16, 0 ] }
            }
        }
    ],
    "textures": {
		"particle": "futurepack:blocks/logistic/monorail_lift_closed",
        "sides": "futurepack:blocks/logistic/monorail_lift_closed"
    }
}