{
  "parent": "block/orientable",
  "textures": {
    "top": "futurepack:blocks/pilzflechte_mycel",
    "front": "futurepack:blocks/pilzflechte_mycel",
    "side": "futurepack:blocks/pilzflechte_mycel"
  }
}