{
  "parent": "block/slab_top",
  "textures": {
    "bottom": "futurepack:blocks/terrain/planks_palirie",
    "top": "futurepack:blocks/terrain/planks_palirie",
    "side": "futurepack:blocks/terrain/planks_palirie"
  }
}