{
	"parent": "block/lectern",
    "textures": {
        "particle": "futurepack:blocks/misc/tectern_sides",
        "bottom": "futurepack:blocks/deko/color_iron_black",
        "base": "futurepack:blocks/misc/tectern_base",
        "front": "futurepack:blocks/misc/tectern_front",
        "sides": "futurepack:blocks/misc/tectern_sides",
        "top": "futurepack:blocks/misc/tectern_top"
    }
}
