{
	"parent": "block/cube",
	"textures": {
	"particle":"futurepack:blocks/misc/beam_inf_side",
	"down":"futurepack:blocks/misc/beam_inf_side",
	"up":"futurepack:blocks/misc/beam_inf_top_down",
	"north":"futurepack:blocks/misc/beam_inf_side",
	"east":"futurepack:blocks/misc/beam_inf_side",
	"south":"futurepack:blocks/misc/beam_inf_side",
	"west":"futurepack:blocks/misc/beam_inf_side"
	}
}