{
	"parent": "block/cube",
	"textures": {
	"particle":"futurepack:blocks/misc/tp-platte_seiten",
	"down":"futurepack:blocks/deko/color_iron_white",
	"up":"futurepack:blocks/misc/tp-platte1",
	"north":"futurepack:blocks/misc/tp-platte_seiten",
	"east":"futurepack:blocks/misc/tp-platte_seiten",
	"south":"futurepack:blocks/misc/tp-platte_seiten",
	"west":"futurepack:blocks/misc/tp-platte_seiten"
	}
}
