{
  "data": {
    "0-0-0": "0",
    "0-0-1": "0",
    "0-0-2": "0",
    "0-0-3": "0",
    "0-0-4": "0",
    "0-0-5": "0",
    "0-0-6": "0",
    "0-0-7": "0",
    "0-1-0": "0",
    "0-1-1": "0",
    "0-1-2": "0",
    "0-1-3": "0",
    "0-1-4": "0",
    "0-1-5": "0",
    "0-1-6": "0",
    "0-1-7": "0",
    "0-2-0": "1",
    "0-2-1": "1",
    "0-2-2": "1",
    "0-2-3": "1",
    "0-2-4": "1",
    "0-2-5": "1",
    "0-2-6": "1",
    "0-2-7": "1",
    "0-3-0": "0",
    "0-3-1": "0",
    "0-3-2": "0",
    "0-3-3": "0",
    "0-3-4": "0",
    "0-3-5": "0",
    "0-3-6": "0",
    "0-3-7": "0",
    "0-4-0": "0",
    "0-4-1": "0",
    "0-4-2": "0",
    "0-4-3": "0",
    "0-4-4": "0",
    "0-4-5": "0",
    "0-4-6": "0",
    "0-4-7": "0",
    "1-0-0": "0",
    "1-0-1": "0",
    "1-0-2": "0",
    "1-0-3": "0",
    "1-0-4": "0",
    "1-0-5": "0",
    "1-0-6": "0",
    "1-0-7": "0",
    "1-1-0": "2",
    "1-1-1": "3",
    "1-1-2": "4",
    "1-1-3": "4",
    "1-1-4": "4",
    "1-1-5": "4",
    "1-1-6": "4",
    "1-1-7": "0",
    "1-2-0": "2",
    "1-2-1": "3",
    "1-2-2": "4",
    "1-2-3": "4",
    "1-2-4": "4",
    "1-2-5": "4",
    "1-2-6": "4",
    "1-2-7": "1",
    "1-3-0": "2",
    "1-3-1": "3",
    "1-3-2": "4",
    "1-3-3": "4",
    "1-3-4": "4",
    "1-3-5": "4",
    "1-3-6": "4",
    "1-3-7": "0",
    "1-4-0": "0",
    "1-4-1": "0",
    "1-4-2": "0",
    "1-4-3": "0",
    "1-4-4": "0",
    "1-4-5": "0",
    "1-4-6": "0",
    "1-4-7": "0",
    "2-0-0": "0",
    "2-0-1": "0",
    "2-0-2": "0",
    "2-0-3": "0",
    "2-0-4": "0",
    "2-0-5": "0",
    "2-0-6": "0",
    "2-0-7": "0",
    "2-1-0": "0",
    "2-1-1": "0",
    "2-1-2": "0",
    "2-1-3": "4",
    "2-1-4": "4",
    "2-1-5": "4",
    "2-1-6": "4",
    "2-1-7": "0",
    "2-2-0": "0",
    "2-2-1": "0",
    "2-2-2": "0",
    "2-2-3": "4",
    "2-2-4": "4",
    "2-2-5": "4",
    "2-2-6": "4",
    "2-2-7": "1",
    "2-3-0": "0",
    "2-3-1": "0",
    "2-3-2": "0",
    "2-3-3": "4",
    "2-3-4": "4",
    "2-3-5": "4",
    "2-3-6": "4",
    "2-3-7": "0",
    "2-4-0": "0",
    "2-4-1": "0",
    "2-4-2": "0",
    "2-4-3": "0",
    "2-4-4": "0",
    "2-4-5": "0",
    "2-4-6": "0",
    "2-4-7": "0",
    "3-0-0": "0",
    "3-0-1": "5",
    "3-0-2": "6",
    "3-0-3": "6",
    "3-0-4": "6",
    "3-0-5": "6",
    "3-0-6": "6",
    "3-0-7": "7",
    "3-1-0": "0",
    "3-1-1": "8",
    "3-1-2": "9",
    "3-1-3": "4",
    "3-1-4": "4",
    "3-1-5": "4",
    "3-1-6": "4",
    "3-1-7": "4",
    "3-2-0": "0",
    "3-2-1": "8",
    "3-2-2": "9",
    "3-2-3": "4",
    "3-2-4": "4",
    "3-2-5": "4",
    "3-2-6": "4",
    "3-2-7": "4",
    "3-3-0": "0",
    "3-3-1": "8",
    "3-3-2": "9",
    "3-3-3": "4",
    "3-3-4": "4",
    "3-3-5": "4",
    "3-3-6": "4",
    "3-3-7": "4",
    "3-4-0": "0",
    "3-4-1": "5",
    "3-4-2": "6",
    "3-4-3": "6",
    "3-4-4": "6",
    "3-4-5": "6",
    "3-4-6": "6",
    "3-4-7": "7",
    "4-0-0": "0",
    "4-0-1": "a",
    "4-0-2": "b",
    "4-0-3": "b",
    "4-0-4": "b",
    "4-0-5": "b",
    "4-0-6": "b",
    "4-0-7": "b",
    "4-1-0": "0",
    "4-1-1": "c",
    "4-1-2": "d",
    "4-1-3": "4",
    "4-1-4": "4",
    "4-1-5": "4",
    "4-1-6": "4",
    "4-1-7": "4",
    "4-2-0": "1",
    "4-2-1": "c",
    "4-2-2": "d",
    "4-2-3": "4",
    "4-2-4": "4",
    "4-2-5": "4",
    "4-2-6": "4",
    "4-2-7": "4",
    "4-3-0": "0",
    "4-3-1": "c",
    "4-3-2": "d",
    "4-3-3": "4",
    "4-3-4": "4",
    "4-3-5": "4",
    "4-3-6": "4",
    "4-3-7": "4",
    "4-4-0": "0",
    "4-4-1": "a",
    "4-4-2": "b",
    "4-4-3": "b",
    "4-4-4": "b",
    "4-4-5": "b",
    "4-4-6": "b",
    "4-4-7": "b",
    "5-0-0": "0",
    "5-0-1": "e",
    "5-0-2": "6",
    "5-0-3": "6",
    "5-0-4": "6",
    "5-0-5": "6",
    "5-0-6": "6",
    "5-0-7": "7",
    "5-1-0": "0",
    "5-1-1": "8",
    "5-1-2": "f",
    "5-1-3": "4",
    "5-1-4": "4",
    "5-1-5": "4",
    "5-1-6": "4",
    "5-1-7": "4",
    "5-2-0": "0",
    "5-2-1": "8",
    "5-2-2": "f",
    "5-2-3": "4",
    "5-2-4": "4",
    "5-2-5": "4",
    "5-2-6": "4",
    "5-2-7": "4",
    "5-3-0": "0",
    "5-3-1": "8",
    "5-3-2": "f",
    "5-3-3": "4",
    "5-3-4": "4",
    "5-3-5": "4",
    "5-3-6": "4",
    "5-3-7": "4",
    "5-4-0": "0",
    "5-4-1": "e",
    "5-4-2": "6",
    "5-4-3": "6",
    "5-4-4": "6",
    "5-4-5": "6",
    "5-4-6": "6",
    "5-4-7": "7",
    "6-0-0": "0",
    "6-0-1": "0",
    "6-0-2": "0",
    "6-0-3": "0",
    "6-0-4": "0",
    "6-0-5": "0",
    "6-0-6": "0",
    "6-0-7": "0",
    "6-1-0": "0",
    "6-1-1": "1",
    "6-1-2": "0",
    "6-1-3": "4",
    "6-1-4": "4",
    "6-1-5": "4",
    "6-1-6": "4",
    "6-1-7": "0",
    "6-2-0": "0",
    "6-2-1": "1",
    "6-2-2": "0",
    "6-2-3": "4",
    "6-2-4": "4",
    "6-2-5": "4",
    "6-2-6": "4",
    "6-2-7": "1",
    "6-3-0": "0",
    "6-3-1": "1",
    "6-3-2": "0",
    "6-3-3": "4",
    "6-3-4": "4",
    "6-3-5": "4",
    "6-3-6": "4",
    "6-3-7": "0",
    "6-4-0": "0",
    "6-4-1": "0",
    "6-4-2": "0",
    "6-4-3": "0",
    "6-4-4": "0",
    "6-4-5": "0",
    "6-4-6": "0",
    "6-4-7": "0",
    "7-0-0": "0",
    "7-0-1": "0",
    "7-0-2": "0",
    "7-0-3": "0",
    "7-0-4": "0",
    "7-0-5": "0",
    "7-0-6": "0",
    "7-0-7": "0",
    "7-1-0": "2",
    "7-1-1": "10",
    "7-1-2": "4",
    "7-1-3": "4",
    "7-1-4": "4",
    "7-1-5": "4",
    "7-1-6": "4",
    "7-1-7": "0",
    "7-2-0": "2",
    "7-2-1": "10",
    "7-2-2": "4",
    "7-2-3": "4",
    "7-2-4": "4",
    "7-2-5": "4",
    "7-2-6": "4",
    "7-2-7": "1",
    "7-3-0": "2",
    "7-3-1": "10",
    "7-3-2": "4",
    "7-3-3": "4",
    "7-3-4": "4",
    "7-3-5": "4",
    "7-3-6": "4",
    "7-3-7": "0",
    "7-4-0": "0",
    "7-4-1": "0",
    "7-4-2": "0",
    "7-4-3": "0",
    "7-4-4": "0",
    "7-4-5": "0",
    "7-4-6": "0",
    "7-4-7": "0",
    "8-0-0": "0",
    "8-0-1": "0",
    "8-0-2": "0",
    "8-0-3": "0",
    "8-0-4": "0",
    "8-0-5": "0",
    "8-0-6": "0",
    "8-0-7": "0",
    "8-1-0": "0",
    "8-1-1": "0",
    "8-1-2": "0",
    "8-1-3": "0",
    "8-1-4": "0",
    "8-1-5": "0",
    "8-1-6": "0",
    "8-1-7": "0",
    "8-2-0": "1",
    "8-2-1": "1",
    "8-2-2": "1",
    "8-2-3": "1",
    "8-2-4": "1",
    "8-2-5": "1",
    "8-2-6": "1",
    "8-2-7": "1",
    "8-3-0": "0",
    "8-3-1": "0",
    "8-3-2": "0",
    "8-3-3": "0",
    "8-3-4": "0",
    "8-3-5": "0",
    "8-3-6": "0",
    "8-3-7": "0",
    "8-4-0": "0",
    "8-4-1": "0",
    "8-4-2": "0",
    "8-4-3": "0",
    "8-4-4": "0",
    "8-4-5": "0",
    "8-4-6": "0",
    "8-4-7": "0"
  },
  "inventorys": [],
  "doors": [
    {
      "facing": 3,
      "w": 3,
      "h": 3,
      "d": 1,
      "start": "3,1,7"
    }
  ],
  "stateMap": {
    "0": "futurepack:color_iron_gray:",
    "1": "futurepack:color_iron_purple:",
    "10": "futurepack:extern_cooler:facing\u003deast;temp\u003d0;waterlogged\u003dfalse",
    "2": "futurepack:color_luftung_gray:",
    "3": "futurepack:extern_cooler:facing\u003dwest;temp\u003d0;waterlogged\u003dfalse",
    "4": "minecraft:air:",
    "5": "futurepack:quantanium:down\u003dfalse;east\u003dtrue;north\u003dfalse;south\u003dtrue;up\u003dfalse;west\u003dfalse",
    "6": "futurepack:quantanium:down\u003dfalse;east\u003dfalse;north\u003dtrue;south\u003dtrue;up\u003dfalse;west\u003dfalse",
    "7": "futurepack:quantanium:down\u003dfalse;east\u003dfalse;north\u003dtrue;south\u003dfalse;up\u003dfalse;west\u003dfalse",
    "8": "futurepack:sand_neon:",
    "9": "futurepack:color_gitter_pane_white:east\u003dtrue;north\u003dtrue;south\u003dfalse;waterlogged\u003dfalse;west\u003dtrue",
    "a": "futurepack:quantanium:down\u003dfalse;east\u003dtrue;north\u003dfalse;south\u003dfalse;up\u003dfalse;west\u003dtrue",
    "b": "futurepack:color_iron_black:",
    "c": "minecraft:blue_ice:",
    "d": "minecraft:glass_pane:east\u003dtrue;north\u003dtrue;south\u003dfalse;waterlogged\u003dfalse;west\u003dtrue",
    "e": "futurepack:quantanium:down\u003dfalse;east\u003dfalse;north\u003dfalse;south\u003dtrue;up\u003dfalse;west\u003dtrue",
    "f": "futurepack:color_gitter_pane_white:east\u003dtrue;north\u003dfalse;south\u003dfalse;waterlogged\u003dfalse;west\u003dtrue"
  }
}