{
  "replace": false,
  "values": [
    "minecraft:cobblestone",
    "minecraft:infested_cobblestone",
    "minecraft:mossy_cobblestone",
    "futurepack:cobblestone_m",
    "futurepack:cobblestone_frozen"
  ]
}