{
	"type": "futurepack:bend",
	"config": {
		"fillerblock": {"Name": "minecraft:dirt", "Properties": {}},
		"topblock": {"Name": "minecraft:mycelium", "Properties": {}},
		"min_a": 0.0078125,
		"max_a": 0.03125,
		"min_height": 10,
		"max_height": 50,
		"chance_per_chunk": 0.125,
		"min_thickness": 2,
		"max_thickness": 8
	}
}